^E:\CSE328\TUTORIAL_1\TUTORIAL_1\MAIN.CPP
/c /Zi /nologo /W3 /WX- /sdl /O2 /Oi /Oy- /GL /D _MBCS /Gm- /EHsc /MD /GS /Gy /fp:precise /Zc:wchar_t /Zc:forScope /Zc:inline /Fo"RELEASE\\" /Fd"RELEASE\VC140.PDB" /Gd /TP /analyze- E:\CSE328\TUTORIAL_1\TUTORIAL_1\MAIN.CPP
^C:\USERS\AUGIE\DOCUMENTS\CSE328\DAB_MIDTERM-9\TUTORIAL_1\TUTORIAL_1\MAIN.CPP
/c /Zi /nologo /W3 /WX- /sdl /O2 /Oi /Oy- /GL /D _MBCS /Gm- /EHsc /MD /GS /Gy /fp:precise /Zc:wchar_t /Zc:forScope /Zc:inline /Fo"RELEASE\\" /Fd"RELEASE\VC140.PDB" /Gd /TP /analyze- C:\USERS\AUGIE\DOCUMENTS\CSE328\DAB_MIDTERM-9\TUTORIAL_1\TUTORIAL_1\MAIN.CPP
