^E:\CSE328\TUTORIAL_1\TUTORIAL_1\MAIN.CPP
E:\CSE328\TUTORIAL_1\TUTORIAL_1\RELEASE\VC140.PDB
E:\CSE328\TUTORIAL_1\TUTORIAL_1\RELEASE\MAIN.OBJ
^C:\USERS\AUGIE\DOCUMENTS\CSE328\DAB_MIDTERM-9\TUTORIAL_1\TUTORIAL_1\MAIN.CPP
C:\USERS\AUGIE\DOCUMENTS\CSE328\DAB_MIDTERM-9\TUTORIAL_1\TUTORIAL_1\RELEASE\VC140.PDB
C:\USERS\AUGIE\DOCUMENTS\CSE328\DAB_MIDTERM-9\TUTORIAL_1\TUTORIAL_1\RELEASE\MAIN.OBJ
