^E:\CSE328\DAB_MIDTERM-2\DAB_MIDTERM-6\DAB_MIDTERM-6\TUTORIAL_1\TUTORIAL_1\DEPENDENCIES\SOIL\SRC\IMAGE_DXT.C
/c /ZI /nologo /W3 /WX- /Od /Oy- /D WIN32 /D _DEBUG /D _LIB /D _UNICODE /D UNICODE /Gm /EHsc /RTC1 /MDd /GS /fp:precise /Zc:wchar_t /Zc:forScope /Zc:inline /Fo"DEBUG\\" /Fd"DEBUG\SOIL.PDB" /Gd /TC /analyze- E:\CSE328\DAB_MIDTERM-2\DAB_MIDTERM-6\DAB_MIDTERM-6\TUTORIAL_1\TUTORIAL_1\DEPENDENCIES\SOIL\SRC\IMAGE_DXT.C
^E:\CSE328\DAB_MIDTERM-2\DAB_MIDTERM-6\DAB_MIDTERM-6\TUTORIAL_1\TUTORIAL_1\DEPENDENCIES\SOIL\SRC\IMAGE_HELPER.C
/c /ZI /nologo /W3 /WX- /Od /Oy- /D WIN32 /D _DEBUG /D _LIB /D _UNICODE /D UNICODE /Gm /EHsc /RTC1 /MDd /GS /fp:precise /Zc:wchar_t /Zc:forScope /Zc:inline /Fo"DEBUG\\" /Fd"DEBUG\SOIL.PDB" /Gd /TC /analyze- E:\CSE328\DAB_MIDTERM-2\DAB_MIDTERM-6\DAB_MIDTERM-6\TUTORIAL_1\TUTORIAL_1\DEPENDENCIES\SOIL\SRC\IMAGE_HELPER.C
^E:\CSE328\DAB_MIDTERM-2\DAB_MIDTERM-6\DAB_MIDTERM-6\TUTORIAL_1\TUTORIAL_1\DEPENDENCIES\SOIL\SRC\SOIL.C
/c /ZI /nologo /W3 /WX- /Od /Oy- /D WIN32 /D _DEBUG /D _LIB /D _UNICODE /D UNICODE /Gm /EHsc /RTC1 /MDd /GS /fp:precise /Zc:wchar_t /Zc:forScope /Zc:inline /Fo"DEBUG\\" /Fd"DEBUG\SOIL.PDB" /Gd /TC /analyze- E:\CSE328\DAB_MIDTERM-2\DAB_MIDTERM-6\DAB_MIDTERM-6\TUTORIAL_1\TUTORIAL_1\DEPENDENCIES\SOIL\SRC\SOIL.C
^E:\CSE328\DAB_MIDTERM-2\DAB_MIDTERM-6\DAB_MIDTERM-6\TUTORIAL_1\TUTORIAL_1\DEPENDENCIES\SOIL\SRC\STB_IMAGE_AUG.C
/c /ZI /nologo /W3 /WX- /Od /Oy- /D WIN32 /D _DEBUG /D _LIB /D _UNICODE /D UNICODE /Gm /EHsc /RTC1 /MDd /GS /fp:precise /Zc:wchar_t /Zc:forScope /Zc:inline /Fo"DEBUG\\" /Fd"DEBUG\SOIL.PDB" /Gd /TC /analyze- E:\CSE328\DAB_MIDTERM-2\DAB_MIDTERM-6\DAB_MIDTERM-6\TUTORIAL_1\TUTORIAL_1\DEPENDENCIES\SOIL\SRC\STB_IMAGE_AUG.C
