^E:\CSE328\TUTORIAL_1\TUTORIAL_1\MAIN.CPP
/c /ZI /nologo /W3 /WX- /sdl /Od /Oy- /D _MBCS /Gm /EHsc /RTC1 /MDd /GS /fp:precise /Zc:wchar_t /Zc:forScope /Zc:inline /Fo"DEBUG\\" /Fd"DEBUG\VC140.PDB" /Gd /TP /analyze- E:\CSE328\TUTORIAL_1\TUTORIAL_1\MAIN.CPP
^C:\USERS\AUGIE\DOCUMENTS\CSE328\FINAL\TUTORIAL_1\TUTORIAL_1\MAIN.CPP
/c /ZI /nologo /W3 /WX- /sdl /Od /Oy- /D _MBCS /Gm /EHsc /RTC1 /MDd /GS /fp:precise /Zc:wchar_t /Zc:forScope /Zc:inline /Fo"DEBUG\\" /Fd"DEBUG\VC140.PDB" /Gd /TP /analyze- C:\USERS\AUGIE\DOCUMENTS\CSE328\FINAL\TUTORIAL_1\TUTORIAL_1\MAIN.CPP
^E:\CSE328\DAB_MIDTERM-2\TUTORIAL_1\TUTORIAL_1\MAIN.CPP
/c /ZI /nologo /W3 /WX- /sdl /Od /Oy- /D _MBCS /Gm /EHsc /RTC1 /MDd /GS /fp:precise /Zc:wchar_t /Zc:forScope /Zc:inline /Fo"DEBUG\\" /Fd"DEBUG\VC140.PDB" /Gd /TP /analyze- E:\CSE328\DAB_MIDTERM-2\TUTORIAL_1\TUTORIAL_1\MAIN.CPP
^C:\USERS\AUGIE\DOCUMENTS\CSE328\DAB_MIDTERM-6\TUTORIAL_1\TUTORIAL_1\MAIN.CPP
/c /ZI /nologo /W3 /WX- /sdl /Od /Oy- /D _MBCS /Gm /EHsc /RTC1 /MDd /GS /fp:precise /Zc:wchar_t /Zc:forScope /Zc:inline /Fo"DEBUG\\" /Fd"DEBUG\VC140.PDB" /Gd /TP /analyze- C:\USERS\AUGIE\DOCUMENTS\CSE328\DAB_MIDTERM-6\TUTORIAL_1\TUTORIAL_1\MAIN.CPP
^E:\CSE328\DAB_MIDTERM-2\DAB_MIDTERM-6\DAB_MIDTERM-6\TUTORIAL_1\TUTORIAL_1\MAIN.CPP
/c /ZI /nologo /W3 /WX- /sdl /Od /Oy- /D _MBCS /Gm /EHsc /RTC1 /MDd /GS /fp:precise /Zc:wchar_t /Zc:forScope /Zc:inline /Fo"DEBUG\\" /Fd"DEBUG\VC140.PDB" /Gd /TP /analyze- E:\CSE328\DAB_MIDTERM-2\DAB_MIDTERM-6\DAB_MIDTERM-6\TUTORIAL_1\TUTORIAL_1\MAIN.CPP
^C:\USERS\AUGIE\DOCUMENTS\CSE328\DAB_MIDTERM-7\TUTORIAL_1\TUTORIAL_1\MAIN.CPP
/c /ZI /nologo /W3 /WX- /sdl /Od /Oy- /D _MBCS /Gm /EHsc /RTC1 /MDd /GS /fp:precise /Zc:wchar_t /Zc:forScope /Zc:inline /Fo"DEBUG\\" /Fd"DEBUG\VC140.PDB" /Gd /TP /analyze- C:\USERS\AUGIE\DOCUMENTS\CSE328\DAB_MIDTERM-7\TUTORIAL_1\TUTORIAL_1\MAIN.CPP
^E:\CSE328\DAB_MIDTERM-2\DAB_MIDTERM-7\TUTORIAL_1\TUTORIAL_1\MAIN.CPP
/c /ZI /nologo /W3 /WX- /sdl /Od /Oy- /D _MBCS /Gm /EHsc /RTC1 /MDd /GS /fp:precise /Zc:wchar_t /Zc:forScope /Zc:inline /Fo"DEBUG\\" /Fd"DEBUG\VC140.PDB" /Gd /TP /analyze- E:\CSE328\DAB_MIDTERM-2\DAB_MIDTERM-7\TUTORIAL_1\TUTORIAL_1\MAIN.CPP
^C:\USERS\AUGIE\DOCUMENTS\CSE328\DAB_MIDTERM-9\TUTORIAL_1\TUTORIAL_1\MAIN.CPP
/c /IDEPENDENCIES /IDEPENDENCIES\GLEW /ZI /nologo /W3 /WX- /sdl /Od /Oy- /D _MBCS /Gm /EHsc /RTC1 /MDd /GS /fp:precise /Zc:wchar_t /Zc:forScope /Zc:inline /Fo"DEBUG\\" /Fd"DEBUG\VC140.PDB" /Gd /TP /analyze- C:\USERS\AUGIE\DOCUMENTS\CSE328\DAB_MIDTERM-9\TUTORIAL_1\TUTORIAL_1\MAIN.CPP
